Capítulo 2 Introducción a R | Introducción a Ciencia de Datos y Machine Learning
…
2.4.1 Seleccionar columnas

Observamos que nuestros datos tienen 2,930 observaciones y 74 variables, con select() podemos seleccionar las variables que se indiquen.

ames_housing %>% select(Lot_Area, Neighborhood, Year_Sold, Sale_Price)

## # A tibble: 2,930 × 4
##    Lot_Area Neighborhood Year_Sold Sale_Price
##       <dbl> <chr>            <dbl>      <dbl>
##  1    31770 North_Ames        2010     215000
##  2    11622 North_Ames        2010     105000
##  3    14267 North_Ames        2010     172000
##  4    11160 North_Ames        2010     244000
##  5    13830 Gilbert           2010     189900
##  6     9978 Gilbert           2010     195500
##  7     4920 Stone_Brook       2010     213500
##  8     5005 Stone_Brook       2010     191500
##  9     5389 Stone_Brook       2010     236500
## 10     7500 Gilbert           2010     189000
## # ℹ 2,920 more rows

¡¡ RECORDAR !!

El operador pipe (%>%) se usa para conectar un elemento con una función o acción a realizar. En este caso solo se indica que en los datos de ames se seleccionan 4 variables.

Con select() y contains() podemos seleccionar variables con alguna cadena de texto.

ames_housing %>% select(contains("Area"))

## # A tibble: 2,930 × 5
##    Lot_Area Mas_Vnr_Area Gr_Liv_Area Garage_Area Pool_Area
##       <dbl>        <dbl>       <dbl>       <dbl>     <dbl>
##  1    31770          112        1656         528         0
##  2    11622            0         896         730         0
##  3    14267          108        1329         312         0
##  4    11160            0        2110         522         0
##  5    13830            0        1629         482         0
##  6     9978           20        1604         470         0
##  7     4920            0        1338         582         0
##  8     5005            0        1280         506         0
##  9     5389            0        1616         608         0
## 10     7500            0        1804         442         0
## # ℹ 2,920 more rows

De igual manera, con select(), ends_with y start_with() podemos seleccionar que inicien o terminen con alguna cadena de texto.

ames_housing %>% select(starts_with("Garage"))

## # A tibble: 2,930 × 5
##    Garage_Type Garage_Finish Garage_Cars Garage_Area Garage_Cond
##    <chr>       <chr>               <dbl>       <dbl> <chr>      
##  1 Attchd      Fin                     2         528 Typical    
##  2 Attchd      Unf                     1         730 Typical    
##  3 Attchd      Unf                     1         312 Typical    
##  4 Attchd      Fin                     2         522 Typical    
##  5 Attchd      Fin                     2         482 Typical    
##  6 Attchd      Fin                     2         470 Typical    
##  7 Attchd      Fin                     2         582 Typical    
##  8 Attchd      RFn                     2         506 Typical    
##  9 Attchd      RFn                     2         608 Typical    
## 10 Attchd      Fin                     2         442 Typical    
## # ℹ 2,920 more rows
…
table(ames_housing$Sale_Condition)

## 
## Abnorml AdjLand  Alloca  Family  Normal Partial 
##     190      12      24      46    2413     245

¡¡ SPOILER !!

En un modelo predictivo de Machine Learning, no es correcto agregar columnas cuyo valor es conocido hasta el momento de la observación. Es decir, no deben agregarse variables que no se conozca su valor al momento de la predicción, como es el caso de condición de venta.

Ahora usaremos la función filter para quedarnos solo con las observaciones con condición de venta “normal”.

ames_housing %>% filter(Sale_Condition == "Normal")

## # A tibble: 2,413 × 74
##    MS_SubClass            MS_Zoning Lot_Frontage Lot_Area Street Alley Lot_Shape
##    <chr>                  <chr>            <dbl>    <dbl> <chr>  <chr> <chr>    
##  1 One_Story_1946_and_Ne… Resident…          141    31770 Pave   No_A… Slightly…
##  2 One_Story_1946_and_Ne… Resident…           80    11622 Pave   No_A… Regular  
##  3 One_Story_1946_and_Ne… Resident…           81    14267 Pave   No_A… Slightly…
##  4 One_Story_1946_and_Ne… Resident…           93    11160 Pave   No_A… Regular  
##  5 Two_Story_1946_and_Ne… Resident…           74    13830 Pave   No_A… Slightly…
##  6 Two_Story_1946_and_Ne… Resident…           78     9978 Pave   No_A… Slightly…
##  7 One_Story_PUD_1946_an… Resident…           41     4920 Pave   No_A… Regular  
##  8 One_Story_PUD_1946_an… Resident…           43     5005 Pave   No_A… Slightly…
##  9 One_Story_PUD_1946_an… Resident…           39     5389 Pave   No_A… Slightly…
## 10 Two_Story_1946_and_Ne… Resident…           60     7500 Pave   No_A… Regular  
## # ℹ 2,403 more rows
## # ℹ 67 more variables: Land_Contour <chr>, Utilities <chr>, Lot_Config <chr>,
## #   Land_Slope <chr>, Neighborhood <chr>, Condition_1 <chr>, Condition_2 <chr>,
## #   Bldg_Type <chr>, House_Style <chr>, Overall_Cond <chr>, Year_Built <dbl>,
## #   Year_Remod_Add <dbl>, Roof_Style <chr>, Roof_Matl <chr>,
## #   Exterior_1st <chr>, Exterior_2nd <chr>, Mas_Vnr_Type <chr>,
## #   Mas_Vnr_Area <dbl>, Exter_Cond <chr>, Foundation <chr>, Bsmt_Cond <chr>, …

También se puede usar para filtrar variables numéricas:

ames_housing %>% filter(Lot_Area > 1000 & Sale_Price >= 150000)

## # A tibble: 1,677 × 74
##    MS_SubClass            MS_Zoning Lot_Frontage Lot_Area Street Alley Lot_Shape
##    <chr>                  <chr>            <dbl>    <dbl> <chr>  <chr> <chr>    
##  1 One_Story_1946_and_Ne… Resident…          141    31770 Pave   No_A… Slightly…
##  2 One_Story_1946_and_Ne… Resident…           81    14267 Pave   No_A… Slightly…
##  3 One_Story_1946_and_Ne… Resident…           93    11160 Pave   No_A… Regular  
##  4 Two_Story_1946_and_Ne… Resident…           74    13830 Pave   No_A… Slightly…
##  5 Two_Story_1946_and_Ne… Resident…           78     9978 Pave   No_A… Slightly…
##  6 One_Story_PUD_1946_an… Resident…           41     4920 Pave   No_A… Regular  
##  7 One_Story_PUD_1946_an… Resident…           43     5005 Pave   No_A… Slightly…
##  8 One_Story_PUD_1946_an… Resident…           39     5389 Pave   No_A… Slightly…
##  9 Two_Story_1946_and_Ne… Resident…           60     7500 Pave   No_A… Regular  
## 10 Two_Story_1946_and_Ne… Resident…           75    10000 Pave   No_A… Slightly…
## # ℹ 1,667 more rows
## # ℹ 67 more variables: Land_Contour <chr>, Utilities <chr>, Lot_Config <chr>,
## #   Land_Slope <chr>, Neighborhood <chr>, Condition_1 <chr>, Condition_2 <chr>,
## #   Bldg_Type <chr>, House_Style <chr>, Overall_Cond <chr>, Year_Built <dbl>,
## #   Year_Remod_Add <dbl>, Roof_Style <chr>, Roof_Matl <chr>,
## #   Exterior_1st <chr>, Exterior_2nd <chr>, Mas_Vnr_Type <chr>,
## #   Mas_Vnr_Area <dbl>, Exter_Cond <chr>, Foundation <chr>, Bsmt_Cond <chr>, …

Notemos que en el ejemplo anterior se usa &, que ayuda a filtrar por dos condiciones.

También puede usarse | para filtrar por alguna de las dos condiciones.

ames_housing %>% filter(Lot_Area < 1000 | Sale_Price <= 150000)

## # A tibble: 1,271 × 74
##    MS_SubClass            MS_Zoning Lot_Frontage Lot_Area Street Alley Lot_Shape
##    <chr>                  <chr>            <dbl>    <dbl> <chr>  <chr> <chr>    
##  1 One_Story_1946_and_Ne… Resident…           80    11622 Pave   No_A… Regular  
##  2 One_Story_1946_and_Ne… Resident…          140    19138 Pave   No_A… Regular  
##  3 One_Story_1946_and_Ne… Resident…            0    11241 Pave   No_A… Slightly…
##  4 One_Story_1946_and_Ne… Resident…            0    12537 Pave   No_A… Slightly…
##  5 One_Story_1946_and_Ne… Resident…           65     8450 Pave   No_A… Regular  
##  6 One_Story_1946_and_Ne… Resident…           70     8400 Pave   No_A… Regular  
##  7 One_Story_1946_and_Ne… Resident…           70    10500 Pave   No_A… Regular  
##  8 Two_Story_PUD_1946_an… Resident…           21     1680 Pave   No_A… Regular  
##  9 Two_Story_PUD_1946_an… Resident…           21     1680 Pave   No_A… Regular  
## 10 Two_Story_PUD_1946_an… Resident…           21     1680 Pave   No_A… Regular  
## # ℹ 1,261 more rows
## # ℹ 67 more variables: Land_Contour <chr>, Utilities <chr>, Lot_Config <chr>,
## #   Land_Slope <chr>, Neighborhood <chr>, Condition_1 <chr>, Condition_2 <chr>,
## #   Bldg_Type <chr>, House_Style <chr>, Overall_Cond <chr>, Year_Built <dbl>,
## #   Year_Remod_Add <dbl>, Roof_Style <chr>, Roof_Matl <chr>,
## #   Exterior_1st <chr>, Exterior_2nd <chr>, Mas_Vnr_Type <chr>,
## #   Mas_Vnr_Area <dbl>, Exter_Cond <chr>, Foundation <chr>, Bsmt_Cond <chr>, …
…
EJERCICIO:

Practicar la función de filtro de observaciones usando los operadores auxiliares.

Concatenar el resultado de seleccionar columnas y posteriormente filtrar columnas.

2.4.3 Ordenar registros

La función arrange() se utiliza para ordenar las filas de un data frame de acuerdo a una o varias variables. Este ordenamiento puede ser ascendente o descendente.

Por defecto arrange() ordena las filas por orden ascendente:

ames_housing %>% arrange(Sale_Price)

## # A tibble: 2,930 × 74
##    MS_SubClass            MS_Zoning Lot_Frontage Lot_Area Street Alley Lot_Shape
##    <chr>                  <chr>            <dbl>    <dbl> <chr>  <chr> <chr>    
##  1 One_Story_1945_and_Ol… Resident…           68     9656 Pave   No_A… Regular  
##  2 One_Story_1946_and_Ne… A_agr               80    14584 Pave   No_A… Regular  
##  3 One_Story_1945_and_Ol… C_all               60     7879 Pave   No_A… Regular  
##  4 One_Story_1945_and_Ol… Resident…           60     8088 Pave   Grav… Regular  
##  5 One_Story_1946_and_Ne… C_all               50     9000 Pave   No_A… Regular  
##  6 One_and_Half_Story_Fi… Resident…           50     5925 Pave   No_A… Regular  
##  7 One_Story_1946_and_Ne… Resident…           50     5000 Pave   No_A… Regular  
##  8 Two_Story_1945_and_Ol… C_all               50     8500 Pave   Paved Regular  
##  9 One_Story_1945_and_Ol… C_all               72     9392 Pave   No_A… Regular  
## 10 One_Story_1945_and_Ol… Resident…           50     5925 Pave   No_A… Regular  
## # ℹ 2,920 more rows
## # ℹ 67 more variables: Land_Contour <chr>, Utilities <chr>, Lot_Config <chr>,
## #   Land_Slope <chr>, Neighborhood <chr>, Condition_1 <chr>, Condition_2 <chr>,
## #   Bldg_Type <chr>, House_Style <chr>, Overall_Cond <chr>, Year_Built <dbl>,
## #   Year_Remod_Add <dbl>, Roof_Style <chr>, Roof_Matl <chr>,
## #   Exterior_1st <chr>, Exterior_2nd <chr>, Mas_Vnr_Type <chr>,
## #   Mas_Vnr_Area <dbl>, Exter_Cond <chr>, Foundation <chr>, Bsmt_Cond <chr>, …

Si las queremos ordenar de forma ascendente, lo haremos del siguiente modo:

ames_housing %>% arrange(desc(Sale_Price))

## # A tibble: 2,930 × 74
##    MS_SubClass            MS_Zoning Lot_Frontage Lot_Area Street Alley Lot_Shape
##    <chr>                  <chr>            <dbl>    <dbl> <chr>  <chr> <chr>    
##  1 Two_Story_1946_and_Ne… Resident…          104    21535 Pave   No_A… Slightly…
##  2 Two_Story_1946_and_Ne… Resident…          160    15623 Pave   No_A… Slightly…
##  3 Two_Story_1946_and_Ne… Resident…          118    35760 Pave   No_A… Slightly…
##  4 One_Story_1946_and_Ne… Resident…          106    12720 Pave   No_A… Regular  
##  5 One_Story_1946_and_Ne… Resident…          100    12919 Pave   No_A… Slightly…
##  6 One_Story_1946_and_Ne… Resident…          105    13693 Pave   No_A… Regular  
##  7 One_Story_1946_and_Ne… Resident…           52    51974 Pave   No_A… Slightly…
##  8 Two_Story_1946_and_Ne… Resident…          114    17242 Pave   No_A… Slightly…
##  9 Two_Story_1946_and_Ne… Resident…          107    13891 Pave   No_A… Regular  
## 10 Two_Story_1946_and_Ne… Resident…           85    16056 Pave   No_A… Slightly…
## # ℹ 2,920 more rows
## # ℹ 67 more variables: Land_Contour <chr>, Utilities <chr>, Lot_Config <chr>,
## #   Land_Slope <chr>, Neighborhood <chr>, Condition_1 <chr>, Condition_2 <chr>,
## #   Bldg_Type <chr>, House_Style <chr>, Overall_Cond <chr>, Year_Built <dbl>,
## #   Year_Remod_Add <dbl>, Roof_Style <chr>, Roof_Matl <chr>,
## #   Exterior_1st <chr>, Exterior_2nd <chr>, Mas_Vnr_Type <chr>,
## #   Mas_Vnr_Area <dbl>, Exter_Cond <chr>, Foundation <chr>, Bsmt_Cond <chr>, …

Si se desea usar dos o más columnas para realizar el ordenamiento, deben separarse por comas cada una de las características

ames_housing %>% 
 arrange(Sale_Condition, desc(Sale_Price), Lot_Area) %>% 
 select(Sale_Condition, Sale_Price, Lot_Area)

## # A tibble: 2,930 × 3
##    Sale_Condition Sale_Price Lot_Area
##    <chr>               <dbl>    <dbl>
##  1 Abnorml            745000    15623
##  2 Abnorml            552000    14836
##  3 Abnorml            475000    11778
##  4 Abnorml            390000    13418
##  5 Abnorml            328900     5119
##  6 Abnorml            310000    14541
##  7 Abnorml            290000     9950
##  8 Abnorml            287000    15498
##  9 Abnorml            258000    12090
## 10 Abnorml            257000    10994
## # ℹ 2,920 more rows
Notemos que en el ejemplo anterior usamos dos pipes (%>%), como habíamos mencionado se pueden usar los necesarios para combinar funciones.

2.4.4 Agregar / Modificar

Con la función mutate() podemos computar transformaciones de variables en un data frame. A menudo, tendremos la necesidad de crear nuevas variables que se calculan a partir de variables existentes. La función mutate() proporciona una interfaz clara para realizar este tipo de operaciones.

Por ejemplo, haremos el cálculo de la antigüedad del inmueble a partir de las variables Year_Sold y Year_Remod_Add:

ejemplo_mutate <- ames_housing %>% 
 select(Year_Sold, Year_Remod_Add) %>%
 mutate(Antique = Year_Sold - Year_Remod_Add)

ejemplo_mutate

## # A tibble: 2,930 × 3
##    Year_Sold Year_Remod_Add Antique
##        <dbl>          <dbl>   <dbl>
##  1      2010           1960      50
##  2      2010           1961      49
##  3      2010           1958      52
##  4      2010           1968      42
##  5      2010           1998      12
##  6      2010           1998      12
##  7      2010           2001       9
##  8      2010           1992      18
##  9      2010           1996      14
## 10      2010           1999      11
## # ℹ 2,920 more rows

El ejemplo anterior crea una nueva variable. Ahora se presenta otro ejemplo en donde se modifica una variable ya creada.

ejemplo_mutate %>% 
 mutate(Antique = Antique * 12)

## # A tibble: 2,930 × 3
##    Year_Sold Year_Remod_Add Antique
##        <dbl>          <dbl>   <dbl>
##  1      2010           1960     600
##  2      2010           1961     588
##  3      2010           1958     624
##  4      2010           1968     504
##  5      2010           1998     144
##  6      2010           1998     144
##  7      2010           2001     108
##  8      2010           1992     216
##  9      2010           1996     168
## 10      2010           1999     132
## # ℹ 2,920 more rows
…
Realizar una consulta usando summarise() y cada una de las funciones estadísticas listadas anteriormente.

2.4.6 Agrupamiento

La función group_by() agrupa un conjunto de filas de acuerdo con los valores de una o más columnas o expresiones.

Usaremos el ejemplo anterior. Primero creamos nuestra nueva variable Antique, después agrupamos por vecindario y al final calculamos la media de la variable Antique. Gracias al agrupamiento, nos regresara una media por cada grupo creado, es decir, nos regresara el promedio de la antigüedad por vecindario.

ames_housing %>% 
 mutate(Antique = Year_Sold - Year_Remod_Add) %>% 
 group_by(Neighborhood) %>% 
 summarise(Mean_Antique = round(mean(Antique), 0))

## # A tibble: 28 × 2
##    Neighborhood        Mean_Antique
##    <chr>                      <dbl>
##  1 Bloomington_Heights            2
##  2 Blueste                       25
##  3 Briardale                     35
##  4 Brookside                     39
##  5 Clear_Creek                   28
##  6 College_Creek                  8
##  7 Crawford                      29
##  8 Edwards                       33
##  9 Gilbert                        9
## 10 Green_Hills                   14
## # ℹ 18 more rows
…
Ejercicio:

Realiza un pivote horizontal a través del ámbito y el total de localidades.

Rellena los datos faltantes con ceros.

En caso de que existan múltiples columnas que se desean dispersar mediante el pivote de una columna con múltiples categorías, es posible especificar tal re estructuración a través del siguiente código.

us_rent_income %>% arrange(NAME)

## # A tibble: 104 × 5
##    GEOID NAME       variable estimate   moe
##    <chr> <chr>      <chr>       <dbl> <dbl>
##  1 01    Alabama    income      24476   136
##  2 01    Alabama    rent          747     3
##  3 02    Alaska     income      32940   508
##  4 02    Alaska     rent         1200    13
##  5 04    Arizona    income      27517   148
##  6 04    Arizona    rent          972     4
##  7 05    Arkansas   income      23789   165
##  8 05    Arkansas   rent          709     5
##  9 06    California income      29454   109
## 10 06    California rent         1358     3
## # ℹ 94 more rows

us_rent_income %>%
  pivot_wider(names_from = variable, values_from = c(estimate, moe))

## # A tibble: 52 × 6
##    GEOID NAME                 estimate_income estimate_rent moe_income moe_rent
##    <chr> <chr>                          <dbl>         <dbl>      <dbl>    <dbl>
##  1 01    Alabama                        24476           747        136        3
##  2 02    Alaska                         32940          1200        508       13
##  3 04    Arizona                        27517           972        148        4
##  4 05    Arkansas                       23789           709        165        5
##  5 06    California                     29454          1358        109        3
##  6 08    Colorado                       32401          1125        109        5
##  7 09    Connecticut                    35326          1123        195        5
##  8 10    Delaware                       31560          1076        247       10
##  9 11    District of Columbia           43198          1424        681       17
## 10 12    Florida                        25952          1077         70        3
## # ℹ 42 more rows
…
Agrupa los datos de localidades por ámbito

Agrega una columna con el porcentaje de localidades por alcaldía

Realiza un pivote horizontal sobre el ámbito y las variables numéricas de total de localidades y su respectivo porcentaje creado en el paso anterior

Ordena los registros de forma descendente de acuerdo con el total de localidades rural y urbano.

Adicionalmente, se puede especificar una función de agregación que operara antes de acomodar los datos en las respectivas columnas indicadas. Un ejemplo de funciones agregadas en la re estructuración de tabla se muestra a continuación, donde se muestra la media de los valores en las categorías tension y breaks.

warpbreaks <- warpbreaks[c("wool", "tension", "breaks")] %>% as_tibble()
warpbreaks

## # A tibble: 54 × 3
##    wool  tension breaks
##    <fct> <fct>    <dbl>
##  1 A     L           26
##  2 A     L           30
##  3 A     L           54
##  4 A     L           25
##  5 A     L           70
##  6 A     L           52
##  7 A     L           51
##  8 A     L           26
##  9 A     L           67
## 10 A     M           18
## # ℹ 44 more rows
…
