Capítulo 4 Introducción a Machine Learning | Introducción a Ciencia de Datos y Machine Learning
…
Finalmente, el error estimado por el es el promedio de todos lo \(i\) errores
calculados.

La principal desventaja de este método es su costo computacional. El proceso
requiere que el modelo sea reajustado y validado tantas veces como observaciones
disponibles se tengan lo que en algunos casos puede ser muy complicado.

rsample contiene la función loo_cv().

set.seed(55)
ames_loo <- loo_cv(ames_train)
ames_loo

## # Leave-one-out cross-validation 
## # A tibble: 2,342 × 2
##    splits           id        
##    <list>           <chr>     
##  1 <split [2341/1]> Resample1 
##  2 <split [2341/1]> Resample2 
##  3 <split [2341/1]> Resample3 
##  4 <split [2341/1]> Resample4 
##  5 <split [2341/1]> Resample5 
##  6 <split [2341/1]> Resample6 
##  7 <split [2341/1]> Resample7 
##  8 <split [2341/1]> Resample8 
##  9 <split [2341/1]> Resample9 
## 10 <split [2341/1]> Resample10
## # ℹ 2,332 more rows
…
ejemplo %>% bake(new_data = NULL) %>% 
  select(Sale_Price, Sale_Price_Peso, Year_Remod_Add, Year_Built, Last_Inversion)

## # A tibble: 2,930 × 5
##    Sale_Price Sale_Price_Peso Year_Remod_Add Year_Built Last_Inversion
##         <int>           <dbl>          <int>      <int>          <int>
##  1     131000        2602970            2007       1880            127
##  2     265979        5285003.           2003       1880            123
##  3     295000        5861650            2002       1880            122
##  4      94000        1867780            1996       1875            121
##  5     138000        2742060            2006       1890            116
##  6     122000        2424140            1987       1872            115
##  7     240000        4768800            2002       1890            112
##  8     119600        2376452            2006       1895            111
##  9     124000        2463880            1991       1880            111
## 10     100000        1987000            1995       1885            110
## # ℹ 2,920 more rows
…
step_relevel nos ayuda a asignar la categoria deseada de una variable como referencia.

step_normalize() es de gran utilidad ya que sirve para normalizar las variables que se le indiquen.

step_dummy() Nos ayuda a crear variables One Hot Encoding.

Por último usamos la función step_rm() para eliminar variables que no son de utilidad para el modelo.

Ahora crearemos algunas variables auxiliares que podrían ser de utilidad para el ajuste de un modelo de regresión. Recordemos que la función recipe() solo son los pasos a seguir, necesitamos usar la función prep() que nos devuelve una receta actualizada con las estimaciones y la función juice() que nos devuelve la matriz de diseño.

casa_juiced <- juice(receta_casas)
casa_juiced

## # A tibble: 2,197 × 275
##    Lot_Frontage Lot_Area Year_Built Mas_Vnr_Area BsmtFin_SF_1 BsmtFin_SF_2
##           <dbl>    <dbl>      <dbl>        <dbl>        <dbl>        <dbl>
##  1       0.214    0.604       0.848       -0.572       -0.512       -0.293
##  2       0.363   -0.216      -0.114       -0.572       -0.512       -0.293
##  3       1.05    -0.0159      1.08        -0.572        1.26        -0.293
##  4      -0.173    4.87        1.15         3.49        -0.512       -0.293
##  5       0.512    0.256       1.11         0.526        1.26        -0.293
##  6      -0.233   -0.696      -0.844       -0.572        1.26        -0.293
##  7       0.125   -0.261      -0.446       -0.572       -0.512       -0.293
##  8       0.571   -0.193      -0.479       -0.572        0.819       -0.293
##  9       0.274    0.704       0.981       -0.572        1.26        -0.293
## 10       0.0651  -0.356      -0.712       -0.572        0.375       -0.293
## # ℹ 2,187 more rows
## # ℹ 269 more variables: Bsmt_Unf_SF <dbl>, Full_Bath <dbl>, Half_Bath <dbl>,
## #   Bedroom_AbvGr <dbl>, TotRms_AbvGrd <dbl>, Fireplaces <dbl>,
## #   Garage_Cars <dbl>, Garage_Area <dbl>, Wood_Deck_SF <dbl>,
## #   Open_Porch_SF <dbl>, Enclosed_Porch <dbl>, ThirdSsn_Porch <dbl>,
## #   Screen_Porch <dbl>, Misc_Val <dbl>, Mo_Sold <dbl>, Year_Sold <dbl>,
## #   Longitude <dbl>, Latitude <dbl>, Sale_Price <int>, …
…
