Capítulo 6 Regresión Logística | Introducción a Ciencia de Datos y Machine Learning
…
logistic_model <-  logistic_reg() %>%
  set_engine("glm")

logistic_fit1 <- parsnip::fit(logistic_model, Churn ~ ., telco_juiced)

Predicción de respuesta con nuevos datos

logistic_p_test <- predict(logistic_fit1, telco_test_bake) %>%
  bind_cols(telco_test_bake) %>% 
  select(.pred_class, Churn)

logistic_p_test

## # A tibble: 2,113 × 2
##    .pred_class Churn
##    <fct>       <fct>
##  1 No          No   
##  2 Yes         Yes  
##  3 No          No   
##  4 No          No   
##  5 No          No   
##  6 Yes         No   
##  7 No          No   
##  8 No          No   
##  9 Yes         Yes  
## 10 No          No   
## # ℹ 2,103 more rows
…
¿Y si se quiere un corte diferente? ¿el negocio qué necesita?

logistic_p_test_prob <- predict(logistic_fit1, telco_test_bake, type = "prob") %>%
  bind_cols(telco_test_bake) %>% 
  select(.pred_Yes, .pred_No, Churn)

logistic_p_test_prob

## # A tibble: 2,113 × 3
##    .pred_Yes .pred_No Churn
##        <dbl>    <dbl> <fct>
##  1    0.0382    0.962 No   
##  2    0.769     0.231 Yes  
##  3    0.309     0.691 No   
##  4    0.0227    0.977 No   
##  5    0.0372    0.963 No   
##  6    0.551     0.449 No   
##  7    0.0635    0.937 No   
##  8    0.0270    0.973 No   
##  9    0.520     0.480 Yes  
## 10    0.0136    0.986 No   
## # ℹ 2,103 more rows

logistic_p_test_prob <- logistic_p_test_prob %>% 
  mutate(.pred_class  = as.factor(if_else ( .pred_Yes >= 0.30, 'Yes', 'No'))) %>% 
  relocate(.pred_class , .after = .pred_No)

logistic_p_test_prob

## # A tibble: 2,113 × 4
##    .pred_Yes .pred_No .pred_class Churn
##        <dbl>    <dbl> <fct>       <fct>
##  1    0.0382    0.962 No          No   
##  2    0.769     0.231 Yes         Yes  
##  3    0.309     0.691 Yes         No   
##  4    0.0227    0.977 No          No   
##  5    0.0372    0.963 No          No   
##  6    0.551     0.449 Yes         No   
##  7    0.0635    0.937 No          No   
##  8    0.0270    0.973 No          No   
##  9    0.520     0.480 Yes         Yes  
## 10    0.0136    0.986 No          No   
## # ℹ 2,103 more rows
…
