Capítulo 8 Árboles de decisión | Introducción a Ciencia de Datos y Machine Learning
…
stopCluster(cluster)

rforest_tune_result %>% saveRDS("models/random_forest_model_reg.rds")

rforest_tune_result <- readRDS("models/random_forest_model_reg.rds")

Paso 7: Análisis de métricas de error e hiperparámetros (Vuelve al paso 3, si es necesario)

Podemos obtener las métricas de cada fold con el siguiente código:

collect_metrics(rforest_tune_result)

## # A tibble: 132 × 8
##     mtry min_n .metric .estimator      mean     n   std_err .config             
##    <int> <int> <chr>   <chr>          <dbl> <int>     <dbl> <chr>               
##  1    11    11 mae     standard   28160.       10  560.     Preprocessor1_Model…
##  2    11    11 rmse    standard   42133.       10 1126.     Preprocessor1_Model…
##  3    11    11 rsq     standard       0.721    10    0.0116 Preprocessor1_Model…
##  4    11    13 mae     standard   28139.       10  556.     Preprocessor1_Model…
##  5    11    13 rmse    standard   42183.       10 1118.     Preprocessor1_Model…
##  6    11    13 rsq     standard       0.720    10    0.0114 Preprocessor1_Model…
##  7     7     3 mae     standard   28054.       10  576.     Preprocessor1_Model…
##  8     7     3 rmse    standard   41511.       10 1145.     Preprocessor1_Model…
##  9     7     3 rsq     standard       0.728    10    0.0115 Preprocessor1_Model…
## 10     9    16 mae     standard   27991.       10  568.     Preprocessor1_Model…
## # ℹ 122 more rows
…
Paso 10: Validar poder predictivo con datos de prueba

Imaginemos por un momento que pasa un mes de tiempo desde que hicimos nuestro modelo, es hora de ponerlo a prueba prediciendo valores de nuevos elementos:

results <- predict(final_rforest_model, ames_test) %>%
  dplyr::bind_cols(Sale_Price = ames_test$Sale_Price) %>%
  dplyr::rename(pred_rforest_reg = .pred)

results

## # A tibble: 733 × 2
##    pred_rforest_reg Sale_Price
##               <dbl>      <int>
##  1          115415.     105000
##  2          162286.     185000
##  3          176087.     180400
##  4          100080.     141000
##  5          215682.     210000
##  6          200723.     216000
##  7          150898.     149900
##  8          123991.     105500
##  9          123991.      88000
## 10          153947.     146000
## # ℹ 723 more rows
…
stopCluster(cluster)

rf_tune_result %>% saveRDS("models/rforest_model_cla.rds")

rf_tune_result <- readRDS("models/rforest_model_cla.rds")

Paso 7: Análisis de métricas de error e hiperparámetros (Vuelve al paso 3, si es necesario)

collect_metrics(rf_tune_result)

## # A tibble: 34 × 8
##     mtry min_n .metric .estimator  mean     n std_err .config              
##    <int> <int> <chr>   <chr>      <dbl> <int>   <dbl> <chr>                
##  1     3    16 pr_auc  binary     0.930    10 0.00372 Preprocessor1_Model01
##  2     3    16 roc_auc binary     0.825    10 0.00623 Preprocessor1_Model01
##  3     3     8 pr_auc  binary     0.929    10 0.00385 Preprocessor1_Model02
##  4     3     8 roc_auc binary     0.822    10 0.00635 Preprocessor1_Model02
##  5     3     2 pr_auc  binary     0.927    10 0.00378 Preprocessor1_Model03
##  6     3     2 roc_auc binary     0.818    10 0.00653 Preprocessor1_Model03
##  7     5     4 pr_auc  binary     0.921    10 0.00359 Preprocessor1_Model04
##  8     5     4 roc_auc binary     0.802    10 0.00682 Preprocessor1_Model04
##  9     3    13 pr_auc  binary     0.929    10 0.00397 Preprocessor1_Model05
## 10     3    13 roc_auc binary     0.824    10 0.00640 Preprocessor1_Model05
## # ℹ 24 more rows
…
Paso 10: Validar poder predictivo con datos de prueba

Imaginemos por un momento que pasa un mes de tiempo desde que hicimos nuestro modelo, es hora de ponerlo a prueba prediciendo valores de nuevos elementos:

results_cla <- predict(final_rf_model_cla, telco_test, type = 'prob') %>% 
  dplyr::bind_cols(Churn = telco_test$Churn, .) %>% 
  mutate(Churn = factor(Churn, levels = c('Yes', 'No'), labels = c('Yes', 'No')))

results_cla

## # A tibble: 2,113 × 3
##    Churn .pred_No .pred_Yes
##    <fct>    <dbl>     <dbl>
##  1 No       0.940    0.0600
##  2 Yes      0.386    0.614 
##  3 No       0.634    0.366 
##  4 No       0.986    0.0139
##  5 No       0.898    0.102 
##  6 No       0.561    0.439 
##  7 No       0.972    0.0280
##  8 No       0.780    0.220 
##  9 Yes      0.552    0.448 
## 10 No       0.983    0.0170
## # ℹ 2,103 more rows
…
## # A tibble: 2 × 3
##   .metric .estimator .estimate
##   <chr>   <chr>          <dbl>
## 1 roc_auc binary         0.837
## 2 pr_auc  binary         0.642

pr_curve_data <- pr_curve(
  results_cla, 
  truth = Churn, 
  estimate = .pred_Yes
  )
pr_curve_data

## # A tibble: 1,920 × 3
##    .threshold  recall precision
##         <dbl>   <dbl>     <dbl>
##  1    Inf     0           1    
##  2      0.851 0.00177     1    
##  3      0.849 0.00353     1    
##  4      0.848 0.00530     1    
##  5      0.828 0.00707     1    
##  6      0.828 0.00883     1    
##  7      0.824 0.00883     0.833
##  8      0.814 0.0106      0.857
##  9      0.811 0.0124      0.875
## 10      0.807 0.0141      0.8  
## # ℹ 1,910 more rows

roc_curve_data <- roc_curve(
  results_cla, 
  truth = Churn, 
  estimate = .pred_Yes
  )
roc_curve_data

## # A tibble: 1,921 × 3
##    .threshold specificity sensitivity
##         <dbl>       <dbl>       <dbl>
##  1 -Inf            0                1
##  2    0.00663      0                1
##  3    0.00665      0.0110           1
##  4    0.00667      0.0213           1
##  5    0.00667      0.0226           1
##  6    0.00668      0.0246           1
##  7    0.00668      0.0252           1
##  8    0.00669      0.0271           1
##  9    0.00672      0.0284           1
## 10    0.00677      0.0291           1
## # ℹ 1,911 more rows
…
